^C:\USERS\RADI-\DESKTOP\KINET0.2\RELEASE\CPLUSPLUSCHOPEXAMPLE.OBJ|C:\USERS\RADI-\DESKTOP\KINET0.2\RELEASE\PRACTICALSOCKETB.OBJ
C:\USERS\RADI-\DESKTOP\KINET0.2\RELEASE\CPLUSPLUSCHOPEXAMPLE.DLL
C:\USERS\RADI-\DESKTOP\KINET0.2\RELEASE\CPLUSPLUSCHOPEXAMPLE.PDB
